<?xml version="1.0" encoding="UTF-8" standalone="no"?>
<svg
   xmlns:dc="http://purl.org/dc/elements/1.1/"
   xmlns:cc="http://creativecommons.org/ns#"
   xmlns:rdf="http://www.w3.org/1999/02/22-rdf-syntax-ns#"
   xmlns:svg="http://www.w3.org/2000/svg"
   xmlns="http://www.w3.org/2000/svg"
   xmlns:sodipodi="http://sodipodi.sourceforge.net/DTD/sodipodi-0.dtd"
   xmlns:inkscape="http://www.inkscape.org/namespaces/inkscape"
   width="114"
   height="96.792282"
   viewBox="0 0 114 96.792282"
   version="1.1"
   xml:space="preserve"
   style="clip-rule:evenodd;fill-rule:evenodd;stroke-linecap:round;stroke-linejoin:round;stroke-miterlimit:1.5"
   id="svg882"
   sodipodi:docname="ms-bear-region-face-point.svg"
   inkscape:version="0.92.3 (2405546, 2018-03-11)"><defs
   id="defs886" /><sodipodi:namedview
   pagecolor="#ffffff"
   bordercolor="#666666"
   borderopacity="1"
   objecttolerance="10"
   gridtolerance="10"
   guidetolerance="10"
   inkscape:pageopacity="0"
   inkscape:pageshadow="2"
   inkscape:window-width="1318"
   inkscape:window-height="628"
   id="namedview884"
   showgrid="false"
   units="px"
   scale-x="4096"
   viewbox-width="64"
   viewbox-height="64"
   inkscape:zoom="3.5859375"
   inkscape:cx="71.665827"
   inkscape:cy="53.750134"
   inkscape:window-x="0"
   inkscape:window-y="27"
   inkscape:window-maximized="0"
   inkscape:current-layer="svg882"
   fit-margin-top="0"
   fit-margin-left="0"
   fit-margin-right="0"
   fit-margin-bottom="0" />
<metadata
   id="metadata834">
<rdf:RDF>

     <rdf:Description
   rdf:about="">
       <dc:title>Mutant Standard emoji v0.3.1</dc:title>
     </rdf:Description>

    <cc:work
   rdf:about="">
        <cc:license
   rdf:resource="http://creativecommons.org/licenses/by-nc-sa/4.0/" />
        <cc:attributionName>Dzuk</cc:attributionName>
        <cc:attributionURL>http://mutant.tech/</cc:attributionURL>
    </cc:work>

<cc:Work
   rdf:about=""><dc:format>image/svg+xml</dc:format><dc:type
     rdf:resource="http://purl.org/dc/dcmitype/StillImage" /><dc:title></dc:title></cc:Work></rdf:RDF>
</metadata>
<g
   style="clip-rule:evenodd;fill-rule:evenodd;stroke-linejoin:round;stroke-miterlimit:1.41420996"
   id="g2745"
   transform="matrix(2,0,0,2,50.000002,32.792286)"><rect
     style="fill:none"
     height="32"
     width="32"
     y="0"
     x="0"
     id="scared" /><g
     id="g2725"
     clip-path="url(#_clip1-3)"><g
       id="outline-6"><path
         id="path2707"
         d="m 16.199,0.001 0.198,0.004 0.198,0.006 0.198,0.009 0.198,0.011 0.197,0.013 0.197,0.016 0.196,0.018 0.196,0.021 0.196,0.023 0.195,0.025 0.195,0.028 0.194,0.031 0.193,0.032 0.194,0.035 0.192,0.037 0.192,0.04 0.191,0.042 0.191,0.044 0.19,0.047 0.189,0.048 0.189,0.051 0.188,0.054 0.187,0.056 0.187,0.058 0.186,0.06 0.185,0.062 0.184,0.065 0.183,0.067 0.183,0.069 0.181,0.071 0.181,0.074 0.18,0.076 0.179,0.078 0.178,0.08 0.177,0.082 0.176,0.085 0.174,0.086 0.174,0.089 0.173,0.091 0.172,0.093 0.171,0.095 0.169,0.097 0.169,0.1 0.167,0.101 0.166,0.104 0.165,0.105 0.164,0.108 0.162,0.11 0.162,0.112 0.159,0.114 0.159,0.116 0.157,0.118 0.156,0.12 0.155,0.121 0.153,0.124 0.152,0.126 0.15,0.128 0.149,0.13 0.148,0.132 0.146,0.134 0.144,0.136 0.143,0.138 0.142,0.139 0.139,0.142 0.138,0.143 0.136,0.144 0.134,0.146 0.132,0.148 0.13,0.149 0.127,0.15 0.127,0.152 0.124,0.153 0.121,0.155 0.12,0.156 0.118,0.157 0.116,0.159 0.114,0.16 0.112,0.161 0.11,0.162 0.108,0.164 0.105,0.165 0.104,0.166 0.101,0.167 0.1,0.169 0.097,0.169 0.095,0.171 0.093,0.172 0.091,0.173 0.089,0.174 0.086,0.175 0.085,0.176 0.082,0.176 0.08,0.178 0.078,0.179 0.076,0.18 0.074,0.181 0.071,0.181 0.069,0.183 0.067,0.183 0.065,0.184 0.062,0.185 0.06,0.186 0.058,0.187 0.056,0.187 0.053,0.188 0.052,0.189 0.048,0.189 0.047,0.19 0.044,0.191 0.042,0.191 0.04,0.192 0.037,0.193 0.035,0.193 0.032,0.193 0.031,0.194 0.028,0.195 0.025,0.195 0.023,0.196 0.021,0.196 0.018,0.196 0.016,0.197 0.013,0.197 0.011,0.198 0.009,0.198 0.006,0.198 0.004,0.198 0.001,0.193 v 3.012 l -0.001,0.161 -0.003,0.168 -0.005,0.166 -0.008,0.166 -0.009,0.166 -0.012,0.165 -0.013,0.165 -0.016,0.164 -0.018,0.163 -0.019,0.163 -0.022,0.163 -0.024,0.161 -0.025,0.161 -0.028,0.161 -0.03,0.16 -0.031,0.159 -0.033,0.158 -0.036,0.158 -0.037,0.157 -0.039,0.157 -0.041,0.155 -0.043,0.155 -0.045,0.154 -0.047,0.153 -0.048,0.152 -0.05,0.152 -0.053,0.151 -0.053,0.15 -0.056,0.149 -0.057,0.148 -0.059,0.147 -0.061,0.147 -0.063,0.145 -0.064,0.145 -0.066,0.143 -0.068,0.143 -0.069,0.142 -0.071,0.14 -0.073,0.14 -0.074,0.139 -0.076,0.138 -0.077,0.136 -0.08,0.136 -0.08,0.135 -0.082,0.133 -0.084,0.132 -0.086,0.132 -0.086,0.13 -0.089,0.129 -0.089,0.128 -0.092,0.127 -0.093,0.125 -0.094,0.125 -0.096,0.123 -0.097,0.122 -0.098,0.121 -0.1,0.12 -0.102,0.118 -0.102,0.117 -0.105,0.116 -0.105,0.115 -0.107,0.113 -0.108,0.113 -0.11,0.11 -0.111,0.11 -0.111,0.108 -0.114,0.107 -0.115,0.105 -0.116,0.105 -0.117,0.102 -0.118,0.102 -0.12,0.1 -0.121,0.098 -0.122,0.097 -0.123,0.096 -0.125,0.094 -0.125,0.093 -0.127,0.091 -0.128,0.09 -0.129,0.089 -0.13,0.087 -0.132,0.085 -0.132,0.083 -0.133,0.083 -0.135,0.08 -0.136,0.079 -0.136,0.078 -0.138,0.076 -0.139,0.074 -0.139,0.073 -0.141,0.071 -0.142,0.069 -0.143,0.068 -0.143,0.066 -0.145,0.064 -0.145,0.063 -0.147,0.06 -0.147,0.06 -0.148,0.057 -0.149,0.056 -0.15,0.053 -0.151,0.053 -0.151,0.05 -0.153,0.048 -0.153,0.047 -0.154,0.045 -0.155,0.043 -0.156,0.041 -0.156,0.039 -0.157,0.037 -0.158,0.036 -0.158,0.033 -0.159,0.031 -0.16,0.03 -0.161,0.028 -0.161,0.025 -0.161,0.024 -0.163,0.022 -0.163,0.019 -0.163,0.018 -0.164,0.016 -0.165,0.013 -0.165,0.012 -0.166,0.009 -0.166,0.008 -0.166,0.005 -0.168,0.003 L 19.006,32 H 12.994 L 12.833,31.999 12.665,31.996 12.499,31.991 12.333,31.983 12.167,31.974 12.002,31.962 11.837,31.949 11.673,31.933 11.51,31.915 11.347,31.896 11.184,31.874 11.023,31.85 10.862,31.825 10.701,31.797 10.541,31.767 10.382,31.736 10.224,31.703 10.066,31.667 9.909,31.63 9.753,31.591 9.597,31.55 9.442,31.507 9.288,31.462 9.135,31.415 8.982,31.367 8.831,31.317 8.68,31.264 8.53,31.211 8.381,31.155 8.233,31.098 8.086,31.038 7.939,30.978 7.794,30.915 7.649,30.851 7.506,30.785 7.363,30.717 7.221,30.648 7.08,30.577 6.941,30.504 6.802,30.43 6.664,30.354 6.528,30.276 6.392,30.197 6.258,30.117 6.124,30.035 5.992,29.951 5.86,29.865 5.73,29.779 5.601,29.69 5.473,29.6 5.346,29.509 5.221,29.416 5.096,29.322 4.973,29.226 4.851,29.129 4.73,29.031 4.61,28.931 4.492,28.829 4.375,28.727 4.259,28.622 4.144,28.517 4.031,28.41 3.918,28.302 3.808,28.192 3.698,28.082 3.59,27.97 3.483,27.856 3.378,27.741 3.273,27.625 3.171,27.508 3.069,27.39 2.969,27.27 2.871,27.149 2.774,27.027 2.678,26.904 2.584,26.779 2.491,26.654 2.4,26.527 2.31,26.399 2.221,26.27 2.134,26.139 2.049,26.008 1.965,25.876 1.883,25.743 1.803,25.608 1.724,25.472 1.646,25.336 1.57,25.198 1.496,25.059 1.423,24.92 1.352,24.779 1.283,24.637 1.215,24.494 1.149,24.351 1.085,24.206 1.022,24.061 0.962,23.915 0.902,23.767 0.845,23.619 0.789,23.47 0.736,23.32 0.683,23.169 0.633,23.018 0.585,22.865 0.538,22.712 0.493,22.558 0.45,22.403 0.409,22.247 0.37,22.091 0.333,21.934 0.298,21.777 0.264,21.618 0.233,21.459 0.203,21.299 0.175,21.138 0.15,20.977 0.126,20.816 0.104,20.653 0.085,20.49 0.067,20.327 0.051,20.163 0.038,19.998 0.026,19.833 0.017,19.667 0.009,19.501 0.004,19.335 0.001,19.167 0,19.006 v -3.012 l 0.001,-0.2 0.004,-0.206 0.007,-0.205 0.009,-0.205 0.011,-0.203 0.015,-0.204 0.016,-0.203 0.019,-0.201 0.022,-0.202 0.024,-0.2 0.027,-0.2 L 0.184,13.566 0.216,13.368 0.25,13.17 0.286,12.973 0.325,12.778 0.366,12.583 0.41,12.388 0.456,12.195 0.504,12.003 0.554,11.811 0.607,11.621 0.662,11.431 0.72,11.243 0.779,11.055 0.841,10.869 0.905,10.683 0.971,10.499 1.04,10.315 1.111,10.133 1.183,9.952 1.258,9.771 1.335,9.592 1.414,9.415 1.496,9.238 1.579,9.062 1.664,8.888 1.751,8.715 1.841,8.543 1.932,8.372 2.026,8.203 2.121,8.034 2.218,7.868 2.317,7.702 2.419,7.538 2.522,7.375 2.627,7.213 2.734,7.053 2.842,6.894 2.953,6.736 3.065,6.58 3.18,6.426 3.296,6.273 3.414,6.121 3.533,5.97 3.654,5.822 3.777,5.674 3.902,5.529 4.029,5.384 4.157,5.242 4.287,5.1 4.418,4.961 4.551,4.823 4.686,4.686 4.823,4.551 4.961,4.418 5.1,4.287 5.241,4.157 5.384,4.029 5.529,3.902 5.674,3.777 5.822,3.654 5.97,3.533 6.121,3.414 6.273,3.296 6.426,3.18 6.58,3.065 6.736,2.953 6.894,2.842 7.053,2.734 7.213,2.627 7.375,2.522 7.538,2.419 7.702,2.318 7.867,2.218 8.034,2.121 8.203,2.026 8.372,1.932 8.543,1.841 8.715,1.751 8.888,1.664 9.062,1.579 9.238,1.495 9.415,1.414 9.592,1.335 9.771,1.258 9.952,1.183 10.133,1.11 10.315,1.04 10.499,0.971 10.683,0.905 10.869,0.841 11.055,0.779 11.243,0.72 11.431,0.662 11.621,0.607 11.811,0.554 12.003,0.504 12.195,0.456 12.388,0.41 12.583,0.366 12.778,0.325 12.973,0.286 13.17,0.25 13.368,0.216 13.566,0.184 13.765,0.155 13.965,0.128 14.165,0.104 14.367,0.082 14.568,0.063 14.771,0.047 14.974,0.032 15.178,0.021 15.383,0.012 15.588,0.005 15.794,0.001 16,0 Z m -0.355,4 -0.155,0.003 -0.154,0.005 -0.154,0.007 -0.154,0.008 -0.152,0.011 -0.153,0.013 -0.151,0.014 -0.151,0.016 -0.151,0.019 -0.15,0.02 L 14.17,4.138 14.021,4.162 13.873,4.188 13.726,4.215 13.579,4.244 13.433,4.275 13.288,4.307 13.144,4.342 12.999,4.378 12.856,4.416 12.714,4.455 12.572,4.496 12.431,4.539 12.29,4.584 12.151,4.63 12.012,4.678 11.874,4.728 11.737,4.779 11.6,4.832 11.465,4.886 11.33,4.942 11.196,5 11.062,5.059 10.93,5.12 10.799,5.182 10.668,5.246 10.538,5.312 10.409,5.379 10.281,5.447 10.154,5.517 10.028,5.589 9.903,5.662 9.779,5.736 9.656,5.812 9.534,5.889 9.412,5.968 9.292,6.048 9.173,6.13 9.055,6.213 8.938,6.297 8.821,6.383 8.706,6.47 8.592,6.558 8.48,6.648 8.368,6.74 8.257,6.832 8.148,6.926 8.039,7.021 7.932,7.117 7.826,7.215 7.721,7.313 7.617,7.413 7.515,7.515 7.413,7.617 7.313,7.721 7.215,7.826 7.117,7.932 7.021,8.039 6.926,8.148 6.832,8.257 6.739,8.368 6.648,8.48 6.558,8.593 6.47,8.706 6.383,8.821 6.297,8.937 6.213,9.055 6.13,9.173 6.048,9.292 5.968,9.412 5.889,9.534 5.812,9.656 5.736,9.779 5.662,9.903 5.589,10.028 5.517,10.154 5.447,10.282 5.379,10.41 5.312,10.538 5.246,10.668 5.182,10.799 5.12,10.93 5.059,11.062 5,11.196 4.942,11.33 4.886,11.464 4.832,11.6 4.779,11.737 4.728,11.874 4.678,12.012 4.63,12.151 4.584,12.291 4.539,12.431 4.496,12.572 4.455,12.714 4.416,12.856 4.378,13 4.342,13.143 4.307,13.288 4.275,13.433 4.244,13.579 4.215,13.726 4.188,13.873 4.162,14.021 4.138,14.17 4.117,14.319 4.097,14.469 4.078,14.62 4.062,14.771 4.048,14.922 4.035,15.075 4.024,15.227 4.016,15.381 4.009,15.535 4.004,15.689 4.001,15.844 4,16.006 v 2.988 l 0.001,0.123 0.002,0.116 0.004,0.116 0.005,0.116 0.006,0.115 0.008,0.115 0.01,0.114 0.011,0.114 0.012,0.113 0.013,0.113 0.015,0.112 0.017,0.112 0.018,0.112 0.019,0.11 0.02,0.111 0.022,0.11 0.023,0.109 0.024,0.109 0.026,0.109 0.027,0.108 0.029,0.107 0.029,0.107 0.031,0.106 0.032,0.106 0.034,0.105 0.034,0.105 0.036,0.104 0.038,0.103 0.038,0.104 0.04,0.102 0.04,0.101 0.043,0.102 0.043,0.1 0.044,0.1 0.046,0.099 0.047,0.099 0.047,0.098 0.049,0.097 0.051,0.097 0.051,0.096 0.053,0.095 0.053,0.094 0.055,0.094 0.056,0.093 0.057,0.093 0.058,0.092 0.059,0.091 0.06,0.09 0.061,0.089 0.062,0.089 0.064,0.088 0.064,0.087 0.065,0.086 0.067,0.085 0.067,0.085 0.068,0.084 0.07,0.083 0.07,0.082 0.071,0.081 0.073,0.081 0.073,0.08 0.074,0.078 0.075,0.078 0.076,0.077 0.077,0.076 0.078,0.075 0.078,0.074 0.08,0.073 0.08,0.073 0.082,0.071 0.082,0.07 0.083,0.07 0.084,0.068 0.085,0.067 0.085,0.067 0.086,0.065 0.087,0.064 0.088,0.064 0.089,0.062 0.089,0.061 0.091,0.06 0.091,0.059 0.091,0.058 0.093,0.057 0.093,0.056 0.094,0.055 0.094,0.053 0.095,0.053 0.096,0.051 0.097,0.051 0.097,0.049 0.098,0.047 0.099,0.047 0.099,0.046 0.1,0.044 0.1,0.044 0.101,0.042 0.102,0.04 0.103,0.04 0.103,0.038 0.103,0.038 0.104,0.035 0.105,0.035 0.105,0.034 0.106,0.032 0.106,0.031 0.107,0.029 0.107,0.029 0.108,0.027 0.109,0.026 0.109,0.024 0.109,0.023 0.11,0.022 0.11,0.02 0.111,0.019 0.112,0.018 0.112,0.017 0.112,0.015 0.113,0.013 0.113,0.012 0.114,0.011 0.114,0.01 0.115,0.008 0.115,0.006 0.116,0.005 0.116,0.004 0.116,0.002 0.123,0.001 h 5.988 l 0.123,-0.001 0.116,-0.002 0.116,-0.004 0.116,-0.005 0.115,-0.006 0.115,-0.008 0.114,-0.01 0.114,-0.011 0.113,-0.012 0.113,-0.013 0.112,-0.015 0.112,-0.017 0.112,-0.018 0.111,-0.019 0.11,-0.02 0.11,-0.022 0.109,-0.023 0.109,-0.024 0.109,-0.026 0.108,-0.027 0.107,-0.029 0.107,-0.029 0.106,-0.031 0.106,-0.032 0.105,-0.034 0.105,-0.034 0.104,-0.036 0.103,-0.038 0.103,-0.038 0.103,-0.04 0.102,-0.04 0.101,-0.042 0.1,-0.044 0.1,-0.044 0.099,-0.046 0.099,-0.047 0.098,-0.047 0.097,-0.05 0.097,-0.05 0.096,-0.051 0.095,-0.053 0.094,-0.053 0.094,-0.055 0.093,-0.056 0.093,-0.057 0.091,-0.058 0.091,-0.059 0.091,-0.06 0.089,-0.061 0.089,-0.062 0.087,-0.064 0.088,-0.064 0.086,-0.065 0.086,-0.067 0.084,-0.067 0.084,-0.068 0.083,-0.07 0.082,-0.07 0.082,-0.071 0.08,-0.073 0.079,-0.073 0.079,-0.074 0.078,-0.075 0.077,-0.076 0.076,-0.077 0.075,-0.078 0.074,-0.078 0.073,-0.08 0.073,-0.081 0.071,-0.081 0.07,-0.082 0.07,-0.083 0.068,-0.084 0.067,-0.084 0.067,-0.086 0.065,-0.086 0.064,-0.088 0.064,-0.087 0.062,-0.089 0.061,-0.09 0.06,-0.09 0.059,-0.09 0.058,-0.092 0.057,-0.093 0.056,-0.093 0.055,-0.094 0.053,-0.094 0.053,-0.095 0.051,-0.096 0.05,-0.097 0.05,-0.097 0.048,-0.098 0.046,-0.099 0.046,-0.099 0.044,-0.1 0.044,-0.101 0.041,-0.1 0.041,-0.102 0.04,-0.103 0.038,-0.103 0.038,-0.103 0.036,-0.104 0.034,-0.104 0.034,-0.106 0.032,-0.106 0.031,-0.106 0.029,-0.107 0.029,-0.108 0.027,-0.107 0.026,-0.109 0.024,-0.109 0.023,-0.109 0.022,-0.11 0.02,-0.111 0.019,-0.11 0.018,-0.112 0.017,-0.112 0.015,-0.112 0.013,-0.113 0.012,-0.113 0.011,-0.114 0.01,-0.114 0.008,-0.115 0.006,-0.115 0.005,-0.116 0.004,-0.116 0.002,-0.116 L 28,18.994 V 16.006 L 27.999,15.851 27.996,15.702 27.992,15.553 27.985,15.405 27.977,15.257 27.967,15.109 27.955,14.961 27.941,14.814 27.926,14.667 27.908,14.52 27.889,14.374 27.868,14.228 27.846,14.082 27.821,13.937 27.795,13.792 27.767,13.648 27.738,13.504 27.706,13.361 27.673,13.218 27.638,13.075 27.601,12.933 27.563,12.792 27.523,12.651 27.481,12.51 27.438,12.37 27.393,12.231 27.346,12.092 27.297,11.954 27.247,11.817 27.195,11.68 27.142,11.543 27.087,11.408 27.03,11.273 26.971,11.139 26.911,11.005 26.849,10.872 26.786,10.741 26.721,10.609 26.654,10.479 26.586,10.349 26.516,10.22 26.445,10.092 26.372,9.965 26.298,9.839 26.222,9.713 26.144,9.589 26.065,9.465 25.984,9.342 25.902,9.221 25.818,9.1 25.732,8.98 25.645,8.861 25.557,8.743 25.467,8.626 25.375,8.51 25.282,8.395 25.188,8.281 25.092,8.168 24.995,8.057 24.896,7.946 24.795,7.837 24.693,7.728 24.59,7.621 24.485,7.515 24.379,7.41 24.272,7.307 24.163,7.205 24.054,7.104 23.943,7.005 23.832,6.908 23.719,6.812 23.605,6.718 23.49,6.625 23.374,6.533 23.257,6.443 23.139,6.355 23.02,6.268 22.9,6.182 22.78,6.099 22.658,6.016 22.535,5.935 22.411,5.856 22.287,5.778 22.161,5.702 22.035,5.628 21.908,5.555 21.78,5.484 21.651,5.414 21.521,5.346 21.391,5.279 21.259,5.214 21.127,5.151 20.995,5.089 20.861,5.029 20.727,4.97 20.592,4.913 20.457,4.858 20.32,4.805 20.183,4.753 20.046,4.703 19.908,4.654 19.769,4.607 19.63,4.562 19.49,4.519 19.35,4.477 19.209,4.437 19.067,4.399 18.925,4.362 18.782,4.327 18.639,4.294 18.496,4.262 18.352,4.233 18.208,4.205 18.063,4.179 17.918,4.154 17.772,4.132 17.626,4.111 17.48,4.092 17.333,4.074 17.186,4.059 17.039,4.045 16.891,4.033 16.743,4.023 16.595,4.015 16.447,4.008 16.298,4.004 16.149,4.001 16,4 Z"
         inkscape:connector-curvature="0" /></g><g
       id="emoji-7"><path
         id="path2710"
         style="fill:#fbc546"
         d="m 16,2 c 0.359,0 0.717,0.014 1.072,0.041 C 17.354,2.291 18,3 18,3 l 2,-0.416 c 0.372,0.11 0.739,0.237 1.1,0.378 0.212,0.366 0.9,1.549 0.9,1.549 h 2 c 0.349,0.243 0.688,0.502 1.015,0.778 C 25.19,5.626 26,7 26,7 l 2,1.789 c 1.298,2.16 2,4.649 2,7.211 0,1.007 0,2.014 0,3 0,6.075 -4.925,11 -11,11 -1.972,0 -4.028,0 -6,0 C 6.925,30 2,25.075 2,19 2,18.014 2,17.007 2,16 2,8.268 8.268,2 16,2 Z"
         inkscape:connector-curvature="0" /><g
         id="g2716"><path
           id="path2712"
           style="fill:#722245"
           d="M 9.794,24.381 C 9.486,24.419 9.173,24.311 8.952,24.082 8.685,23.805 8.601,23.398 8.736,23.037 8.909,22.576 9.1,22.065 9.297,21.542 10.321,18.81 12.933,17 15.851,17 c 0.099,0 0.199,0 0.298,0 2.918,0 5.53,1.81 6.554,4.542 0.197,0.523 0.388,1.034 0.561,1.495 0.135,0.361 0.051,0.768 -0.216,1.045 -0.221,0.229 -0.534,0.337 -0.842,0.299 -1.342,-2.081 -11.07,-2.081 -12.412,0 z"
           inkscape:connector-curvature="0" /><path
           id="path2714"
           style="fill:#ca3b8f"
           d="M 9.794,24.381 C 11.136,22.3 13.46,21 15.999,21 16,21 16,21 16.001,21 c 2.539,0 4.863,1.3 6.205,3.381 C 22.141,24.373 22.075,24.358 22.011,24.337 21.033,24.011 19.892,23.631 19.078,23.359 18.364,23.121 17.616,23 16.864,23 c -0.541,0 -1.187,0 -1.728,0 -0.752,0 -1.5,0.121 -2.214,0.359 -0.814,0.272 -1.955,0.652 -2.933,0.978 -0.064,0.021 -0.13,0.036 -0.195,0.044 z"
           inkscape:connector-curvature="0" /></g><path
         id="path2718"
         style="fill:#579aff"
         d="m 25.015,5.289 c 0.305,0.257 0.6,0.527 0.884,0.812 0.814,0.813 1.518,1.717 2.101,2.688 V 10.5 c 0,0.398 -0.158,0.779 -0.439,1.061 C 27.279,11.842 26.898,12 26.5,12 26.102,12 25.721,11.842 25.439,11.561 25.158,11.279 25,10.898 25,10.5 25,9.07 25,6.93 25,5.5 25,5.429 25.005,5.358 25.015,5.289 Z M 21.1,2.962 c 1.021,0.399 1.995,0.919 2.9,1.549 V 9.5 c 0,0.398 -0.158,0.779 -0.439,1.061 C 23.279,10.842 22.898,11 22.5,11 22.102,11 21.721,10.842 21.439,10.561 21.158,10.279 21,9.898 21,9.5 21,7.835 21,5.165 21,3.5 21,3.314 21.034,3.132 21.1,2.962 Z M 17.072,2.041 C 18.07,2.118 19.051,2.301 20,2.584 V 8.5 C 20,8.898 19.842,9.279 19.561,9.561 19.279,9.842 18.898,10 18.5,10 18.102,10 17.721,9.842 17.439,9.561 17.158,9.279 17,8.898 17,8.5 c 0,-1.665 0,-4.335 0,-6 0,-0.157 0.025,-0.312 0.072,-0.459 z"
         inkscape:connector-curvature="0" /><path
         id="path2720"
         d="M 11,12.498 C 11,11.671 10.329,11 9.502,11 9.501,11 9.501,11 9.5,11 9.102,11 8.721,11.158 8.439,11.439 8.158,11.721 8,12.102 8,12.5 c 0,0.633 0,1.367 0,2 0,0.398 0.158,0.779 0.439,1.061 C 8.721,15.842 9.102,16 9.5,16 9.898,16 10.279,15.842 10.561,15.561 10.842,15.279 11,14.898 11,14.5 c 0,-0.633 0,-1.369 0,-2.002 z"
         inkscape:connector-curvature="0" /><path
         id="path2722"
         d="M 24,12.498 C 24,11.671 23.329,11 22.502,11 22.501,11 22.499,11 22.498,11 21.671,11 21,11.671 21,12.498 c 0,0.634 0,1.37 0,2.004 0,0.827 0.671,1.498 1.498,1.498 10e-4,0 0.003,0 0.004,0 0.827,0 1.498,-0.671 1.498,-1.498 0,-0.634 0,-1.37 0,-2.004 z"
         inkscape:connector-curvature="0" /></g></g></g><g
   id="g2773"
   transform="translate(1.9073486e-6,0.79228592)"><rect
     style="fill:none;stroke-width:2"
     height="64"
     width="64"
     y="0"
     x="0"
     id="bear" /><g
     transform="scale(2)"
     id="outline"><path
       inkscape:connector-curvature="0"
       id="path837"
       d="m 14.311,6 c -5.246,0 -9.601,4.054 -9.974,9.288 -0.054,0.755 -0.105,1.47 -0.151,2.105 -0.12,1.681 0.371,3.35 1.382,4.698 0.713,0.95 1.566,2.087 2.332,3.109 1.322,1.763 3.397,2.8 5.6,2.8 1.574,0 3.426,0 5,0 2.203,0 4.278,-1.037 5.6,-2.8 0.766,-1.022 1.619,-2.159 2.332,-3.109 1.011,-1.348 1.502,-3.017 1.382,-4.698 -0.046,-0.635 -0.097,-1.35 -0.151,-2.105 C 27.29,10.054 22.935,6 17.689,6 16.571,6 15.429,6 14.311,6 Z" /><path
       inkscape:connector-curvature="0"
       id="path839"
       d="m 17.836,4.001 0.146,0.003 0.147,0.004 0.145,0.006 0.146,0.008 0.145,0.01 0.145,0.011 0.144,0.013 0.144,0.015 0.143,0.016 0.143,0.018 0.142,0.02 0.142,0.022 0.141,0.023 0.141,0.025 0.141,0.026 0.139,0.028 0.14,0.03 0.138,0.031 0.138,0.033 0.138,0.035 0.136,0.036 0.137,0.037 0.135,0.04 0.135,0.04 0.134,0.043 0.134,0.043 0.133,0.046 0.132,0.047 0.132,0.048 0.131,0.05 0.129,0.051 0.13,0.053 0.128,0.054 0.128,0.055 0.127,0.058 0.126,0.058 0.126,0.06 0.125,0.061 0.123,0.063 0.123,0.064 0.123,0.065 0.121,0.067 0.12,0.068 0.12,0.07 0.119,0.071 0.118,0.072 0.117,0.073 0.116,0.075 0.115,0.076 0.114,0.078 0.113,0.078 0.112,0.08 0.112,0.081 0.11,0.083 0.11,0.083 0.108,0.085 0.107,0.086 0.107,0.088 0.105,0.088 0.104,0.09 0.104,0.09 0.102,0.093 0.101,0.093 0.1,0.094 0.099,0.095 0.098,0.097 0.097,0.098 0.096,0.098 0.095,0.1 0.093,0.101 0.092,0.102 0.092,0.104 0.09,0.104 0.089,0.105 0.087,0.106 0.087,0.108 0.085,0.108 0.084,0.11 0.083,0.11 0.082,0.111 0.08,0.113 0.079,0.113 0.078,0.114 0.077,0.116 0.075,0.116 0.074,0.117 0.073,0.119 0.071,0.118 0.07,0.12 0.069,0.121 0.067,0.122 0.066,0.123 0.064,0.123 0.064,0.125 0.062,0.125 0.06,0.126 0.059,0.127 0.057,0.128 0.057,0.128 0.054,0.129 0.054,0.131 0.051,0.131 0.05,0.131 0.049,0.133 0.047,0.133 0.046,0.134 0.044,0.134 0.043,0.136 0.041,0.136 0.04,0.136 0.038,0.138 0.036,0.138 0.035,0.139 0.033,0.139 0.031,0.14 0.03,0.141 0.029,0.141 0.026,0.142 0.025,0.142 0.024,0.143 0.021,0.143 0.02,0.144 0.019,0.145 0.016,0.145 0.015,0.145 0.013,0.147 0.011,0.14 0.151,2.117 0.006,0.095 0.006,0.102 0.004,0.101 0.003,0.101 0.003,0.101 0.001,0.101 -0.001,0.102 -0.001,0.1 -0.002,0.101 -0.004,0.101 -0.005,0.1 -0.005,0.101 -0.007,0.1 -0.009,0.1 -0.009,0.1 -0.01,0.1 -0.011,0.1 -0.013,0.1 -0.013,0.099 -0.015,0.099 -0.016,0.099 -0.017,0.099 -0.018,0.098 -0.019,0.098 -0.02,0.099 -0.021,0.098 -0.023,0.097 -0.023,0.097 -0.024,0.097 -0.026,0.097 -0.027,0.096 -0.027,0.096 -0.029,0.096 -0.03,0.096 -0.031,0.094 -0.032,0.095 -0.033,0.095 -0.034,0.094 -0.035,0.093 -0.036,0.094 -0.037,0.093 -0.038,0.092 -0.039,0.092 -0.041,0.092 -0.041,0.092 -0.043,0.09 -0.043,0.091 -0.044,0.09 -0.046,0.09 -0.046,0.088 -0.048,0.089 -0.048,0.088 -0.05,0.088 -0.05,0.087 -0.052,0.086 -0.052,0.087 -0.054,0.085 -0.054,0.085 -0.056,0.085 -0.057,0.084 -0.057,0.083 -0.058,0.083 -0.06,0.082 -0.057,0.077 -2.339,3.119 -0.076,0.1 -0.082,0.104 -0.083,0.102 -0.085,0.102 -0.086,0.1 -0.087,0.098 -0.088,0.097 -0.09,0.096 -0.091,0.094 -0.092,0.093 -0.094,0.092 -0.095,0.09 -0.096,0.088 -0.097,0.087 -0.098,0.086 -0.1,0.084 -0.1,0.082 -0.102,0.081 -0.103,0.079 -0.104,0.078 -0.105,0.077 -0.105,0.074 -0.107,0.073 -0.108,0.072 -0.109,0.07 -0.11,0.068 -0.111,0.067 -0.111,0.065 -0.113,0.064 -0.114,0.062 -0.114,0.06 -0.115,0.059 -0.116,0.057 -0.117,0.055 -0.118,0.054 -0.118,0.052 -0.119,0.05 -0.12,0.049 -0.121,0.046 -0.121,0.045 -0.122,0.044 -0.123,0.041 -0.123,0.04 -0.124,0.039 -0.125,0.036 -0.125,0.034 -0.126,0.033 -0.126,0.031 -0.127,0.029 -0.127,0.028 -0.128,0.025 -0.128,0.024 -0.129,0.022 -0.129,0.02 -0.13,0.018 -0.13,0.016 -0.131,0.015 -0.13,0.012 -0.132,0.011 -0.131,0.009 -0.132,0.006 -0.132,0.005 -0.132,0.003 L 18.507,30 h -5.014 l -0.126,-0.001 -0.132,-0.003 -0.132,-0.005 -0.132,-0.006 -0.131,-0.009 -0.132,-0.011 -0.13,-0.012 -0.131,-0.015 -0.13,-0.016 -0.13,-0.018 -0.129,-0.02 -0.129,-0.022 -0.128,-0.024 -0.128,-0.025 -0.127,-0.028 -0.127,-0.029 -0.126,-0.031 -0.126,-0.033 -0.125,-0.034 -0.125,-0.037 -0.124,-0.038 -0.123,-0.04 -0.123,-0.041 -0.122,-0.044 -0.121,-0.045 -0.121,-0.046 -0.12,-0.049 L 9.944,29.268 9.826,29.216 9.708,29.162 9.591,29.107 9.475,29.05 9.36,28.991 9.245,28.931 9.132,28.869 9.019,28.805 8.908,28.74 8.797,28.673 8.687,28.605 8.578,28.535 8.47,28.463 8.363,28.39 8.258,28.316 8.153,28.239 8.049,28.161 7.946,28.082 7.844,28.001 7.744,27.919 7.644,27.835 7.546,27.749 7.449,27.662 7.353,27.574 7.258,27.484 7.165,27.392 7.072,27.299 6.981,27.205 6.891,27.11 6.803,27.012 6.715,26.914 6.63,26.814 6.545,26.713 6.462,26.61 6.38,26.506 6.304,26.406 3.965,23.287 3.908,23.21 3.848,23.128 3.79,23.045 3.733,22.962 3.676,22.878 3.62,22.793 3.566,22.708 3.513,22.623 3.46,22.536 3.408,22.45 3.358,22.363 3.308,22.275 3.26,22.187 3.212,22.098 3.166,22.009 3.12,21.92 3.076,21.83 3.033,21.739 2.99,21.649 2.949,21.557 2.909,21.466 2.869,21.373 2.831,21.281 2.794,21.188 2.758,21.094 2.723,21.001 2.689,20.907 2.656,20.812 2.624,20.718 2.593,20.623 2.563,20.527 2.534,20.431 2.507,20.335 2.48,20.239 2.454,20.142 2.43,20.045 2.407,19.948 2.384,19.85 2.363,19.753 2.343,19.654 2.324,19.556 2.306,19.458 2.289,19.359 2.273,19.26 2.258,19.161 l -0.013,-0.1 -0.013,-0.099 -0.011,-0.1 -0.01,-0.1 -0.01,-0.1 -0.008,-0.1 -0.006,-0.1 L 2.181,18.361 2.176,18.261 2.172,18.16 2.17,18.059 2.169,17.958 2.168,17.857 2.169,17.756 2.172,17.655 2.175,17.554 2.179,17.453 2.185,17.351 2.191,17.256 2.342,15.139 2.353,14.998 2.366,14.852 2.381,14.707 2.397,14.562 2.416,14.417 2.436,14.273 2.457,14.13 2.481,13.987 2.506,13.845 2.532,13.703 2.561,13.561 2.591,13.421 2.622,13.281 2.655,13.142 2.69,13.003 2.726,12.865 2.764,12.728 2.804,12.591 2.845,12.455 2.888,12.319 2.932,12.185 2.978,12.051 3.025,11.918 3.074,11.785 3.124,11.654 3.175,11.523 3.229,11.392 3.283,11.263 3.339,11.135 3.397,11.007 3.456,10.88 3.516,10.754 3.578,10.629 3.642,10.504 3.706,10.381 3.772,10.258 3.839,10.136 3.908,10.015 3.978,9.896 4.05,9.776 4.122,9.658 4.196,9.541 4.271,9.425 4.348,9.309 4.426,9.195 4.505,9.082 4.585,8.969 4.667,8.858 4.75,8.748 4.834,8.638 4.919,8.53 5.006,8.422 5.093,8.316 5.182,8.211 5.272,8.107 5.364,8.003 5.456,7.901 5.549,7.8 5.644,7.7 5.74,7.602 5.837,7.504 5.935,7.407 6.034,7.312 6.134,7.218 6.235,7.125 6.337,7.032 6.44,6.942 6.545,6.852 6.65,6.763 6.757,6.676 6.864,6.59 6.972,6.505 7.082,6.422 7.192,6.339 7.304,6.258 7.416,6.178 7.529,6.1 7.643,6.022 7.758,5.946 7.874,5.871 7.991,5.798 8.109,5.726 8.228,5.655 8.348,5.585 8.468,5.517 8.589,5.45 8.712,5.385 8.835,5.321 8.958,5.258 9.083,5.197 9.208,5.137 9.335,5.079 9.462,5.021 9.59,4.966 9.718,4.912 9.848,4.859 9.978,4.808 10.108,4.758 10.24,4.71 10.372,4.663 10.505,4.617 10.639,4.574 10.773,4.531 10.908,4.491 11.043,4.451 11.18,4.414 11.316,4.378 11.454,4.343 11.592,4.31 11.73,4.279 11.87,4.249 12.009,4.221 12.15,4.195 12.291,4.17 12.432,4.147 12.574,4.125 12.716,4.105 12.859,4.087 13.002,4.071 13.146,4.056 13.29,4.043 13.435,4.032 13.58,4.022 13.726,4.014 13.871,4.008 14.018,4.004 14.164,4.001 14.305,4 h 3.39 z M 14.317,8 14.213,8.001 14.114,8.002 14.016,8.005 13.919,8.009 13.821,8.015 13.724,8.021 13.628,8.029 13.531,8.038 13.435,8.047 13.34,8.058 13.244,8.071 13.15,8.084 13.055,8.098 12.961,8.113 12.867,8.13 12.774,8.148 12.681,8.166 12.588,8.186 12.496,8.207 12.404,8.229 12.313,8.252 12.222,8.276 12.131,8.301 12.041,8.327 11.952,8.354 11.862,8.382 11.774,8.411 11.685,8.441 11.597,8.472 11.51,8.504 11.423,8.538 11.336,8.572 11.25,8.607 11.165,8.643 11.08,8.68 10.995,8.718 10.911,8.757 10.828,8.797 10.744,8.837 10.662,8.879 10.58,8.922 10.499,8.966 10.418,9.01 10.337,9.055 10.258,9.102 10.179,9.149 10.1,9.197 10.022,9.246 9.944,9.296 9.868,9.347 9.792,9.398 9.716,9.451 9.641,9.504 9.567,9.558 9.493,9.613 9.42,9.669 9.347,9.726 9.276,9.784 9.205,9.842 9.134,9.901 9.065,9.961 8.995,10.022 8.927,10.083 8.86,10.145 8.793,10.208 8.727,10.272 8.661,10.336 8.596,10.402 8.532,10.468 8.469,10.534 8.407,10.602 8.345,10.67 8.284,10.739 8.224,10.809 8.165,10.879 8.106,10.95 8.048,11.021 7.992,11.094 7.935,11.167 7.88,11.24 7.826,11.315 7.772,11.39 7.719,11.465 7.667,11.542 7.616,11.619 7.566,11.696 7.517,11.774 7.468,11.853 7.421,11.932 7.374,12.012 7.328,12.093 7.284,12.173 7.24,12.255 7.197,12.337 7.155,12.42 7.114,12.503 7.073,12.587 7.034,12.672 6.996,12.756 6.959,12.842 6.922,12.928 6.887,13.014 6.853,13.102 6.819,13.189 6.787,13.277 6.755,13.366 6.725,13.455 6.696,13.544 6.667,13.634 6.64,13.725 6.614,13.816 6.588,13.907 6.564,13.999 6.541,14.091 6.519,14.184 6.498,14.277 6.478,14.371 6.459,14.465 6.441,14.56 6.425,14.655 6.409,14.75 6.395,14.846 6.381,14.942 6.369,15.039 6.358,15.136 6.348,15.234 6.339,15.332 6.331,15.436 6.182,17.529 6.178,17.591 6.174,17.648 6.172,17.704 6.17,17.76 6.169,17.816 v 0.056 0.057 0.056 l 0.002,0.055 0.002,0.057 0.002,0.056 0.004,0.055 0.003,0.056 0.005,0.056 0.005,0.055 0.006,0.056 0.006,0.055 0.007,0.056 0.007,0.055 0.009,0.054 0.008,0.055 0.01,0.056 0.01,0.054 0.01,0.055 0.012,0.054 0.011,0.055 0.013,0.054 0.013,0.054 0.013,0.054 0.014,0.053 0.015,0.054 0.016,0.053 0.016,0.054 0.016,0.052 0.017,0.053 0.018,0.053 0.019,0.053 0.018,0.052 0.02,0.052 0.02,0.052 0.021,0.051 0.021,0.052 0.022,0.051 0.022,0.051 0.023,0.051 0.024,0.05 0.024,0.05 0.024,0.051 0.026,0.049 0.025,0.05 0.027,0.049 0.027,0.049 0.027,0.048 0.028,0.049 0.029,0.048 0.029,0.047 0.03,0.048 0.03,0.047 0.031,0.047 0.031,0.047 0.032,0.046 0.033,0.046 0.033,0.046 0.037,0.05 2.324,3.098 0.049,0.065 0.045,0.057 0.046,0.058 0.047,0.056 0.048,0.056 0.049,0.054 0.049,0.054 0.05,0.054 0.05,0.052 0.051,0.051 0.052,0.051 0.053,0.05 0.053,0.049 0.054,0.049 0.055,0.047 0.055,0.047 0.056,0.045 0.056,0.045 0.057,0.044 0.058,0.044 0.058,0.042 0.059,0.042 0.06,0.04 0.06,0.04 0.06,0.039 0.061,0.038 0.062,0.037 0.062,0.036 0.062,0.036 0.063,0.034 0.064,0.034 0.064,0.032 0.064,0.032 0.065,0.031 0.066,0.029 0.065,0.029 0.067,0.028 0.066,0.027 0.067,0.026 0.068,0.025 0.068,0.024 0.068,0.023 0.068,0.023 0.069,0.021 0.069,0.02 0.07,0.019 0.07,0.018 0.07,0.018 0.07,0.016 0.071,0.015 0.071,0.014 0.071,0.013 0.072,0.012 0.072,0.012 0.072,0.01 0.072,0.009 0.072,0.008 0.073,0.007 0.073,0.005 0.073,0.005 0.073,0.004 0.074,0.003 0.073,10e-4 0.081,0.001 h 4.986 l 0.081,-0.001 0.073,-10e-4 0.074,-0.003 0.073,-0.004 0.073,-0.005 0.073,-0.005 0.073,-0.007 0.072,-0.008 0.072,-0.009 0.072,-0.01 0.072,-0.012 0.072,-0.012 0.071,-0.013 0.071,-0.014 0.071,-0.015 0.07,-0.016 0.07,-0.018 0.07,-0.018 0.07,-0.019 0.069,-0.02 0.069,-0.021 0.068,-0.023 0.068,-0.023 0.068,-0.024 0.068,-0.025 0.067,-0.026 0.066,-0.027 0.066,-0.028 0.066,-0.029 0.066,-0.029 0.065,-0.031 0.064,-0.032 0.064,-0.032 0.064,-0.034 0.063,-0.034 0.062,-0.036 0.062,-0.036 0.062,-0.037 0.061,-0.038 0.06,-0.039 0.06,-0.04 0.06,-0.04 0.059,-0.042 0.058,-0.042 0.058,-0.044 0.057,-0.044 0.056,-0.045 0.056,-0.046 0.055,-0.046 0.055,-0.047 0.054,-0.049 0.053,-0.049 0.053,-0.05 0.051,-0.05 0.052,-0.052 0.051,-0.053 0.049,-0.053 0.049,-0.054 0.049,-0.055 0.048,-0.055 0.046,-0.056 0.047,-0.058 0.045,-0.057 0.049,-0.065 2.324,-3.098 0.037,-0.05 0.033,-0.046 0.033,-0.046 0.032,-0.046 0.031,-0.047 0.031,-0.047 0.03,-0.047 0.03,-0.047 0.029,-0.048 0.029,-0.048 0.028,-0.049 0.027,-0.048 0.027,-0.049 0.027,-0.049 0.026,-0.05 0.025,-0.049 0.024,-0.051 0.024,-0.05 0.024,-0.05 0.023,-0.051 0.022,-0.051 0.022,-0.051 0.021,-0.052 0.021,-0.052 0.02,-0.051 0.02,-0.052 0.018,-0.052 0.019,-0.053 0.018,-0.052 0.017,-0.054 0.016,-0.052 0.016,-0.054 0.016,-0.053 0.014,-0.053 0.015,-0.054 0.013,-0.054 0.013,-0.054 0.013,-0.055 0.011,-0.054 0.012,-0.054 0.01,-0.055 0.01,-0.054 0.01,-0.055 0.008,-0.055 0.009,-0.055 0.007,-0.056 0.007,-0.055 0.006,-0.055 0.006,-0.056 0.005,-0.055 0.005,-0.056 0.003,-0.056 0.004,-0.055 0.002,-0.056 0.002,-0.056 0.002,-0.056 V 17.928 17.872 17.816 L 25.83,17.76 25.828,17.704 25.826,17.648 25.822,17.591 25.818,17.529 25.669,15.436 25.661,15.332 25.652,15.234 25.642,15.136 25.631,15.039 25.619,14.942 25.606,14.846 25.591,14.75 25.575,14.655 25.559,14.56 l -0.018,-0.095 -0.019,-0.094 -0.02,-0.094 -0.021,-0.093 -0.022,-0.093 -0.023,-0.092 -0.024,-0.092 -0.025,-0.091 -0.027,-0.091 -0.027,-0.091 -0.029,-0.09 -0.029,-0.089 -0.03,-0.089 -0.032,-0.089 -0.032,-0.088 -0.034,-0.088 -0.034,-0.087 -0.035,-0.086 -0.037,-0.086 -0.037,-0.085 -0.038,-0.085 -0.04,-0.085 -0.04,-0.084 -0.041,-0.083 -0.042,-0.083 -0.043,-0.082 -0.044,-0.081 -0.045,-0.082 -0.045,-0.08 -0.047,-0.08 -0.048,-0.079 -0.048,-0.079 -0.049,-0.078 -0.05,-0.078 L 24.333,11.542 24.281,11.465 24.228,11.39 24.174,11.315 24.12,11.24 24.065,11.167 24.008,11.094 23.952,11.021 23.894,10.95 23.835,10.879 23.776,10.809 23.716,10.739 23.655,10.67 23.593,10.602 23.531,10.535 23.468,10.468 23.404,10.402 23.339,10.336 23.273,10.272 23.207,10.208 23.14,10.145 23.073,10.083 23.004,10.021 22.936,9.961 22.866,9.901 22.795,9.842 22.724,9.783 22.653,9.726 22.58,9.669 22.507,9.613 22.433,9.558 22.359,9.504 22.284,9.451 22.208,9.398 22.132,9.347 22.056,9.296 21.978,9.246 21.9,9.197 21.821,9.149 21.742,9.102 21.663,9.055 21.582,9.01 21.501,8.966 21.42,8.922 21.338,8.879 21.255,8.837 21.173,8.797 21.089,8.757 21.005,8.718 20.92,8.68 20.835,8.643 20.75,8.607 20.664,8.572 20.577,8.537 20.49,8.504 20.403,8.472 20.315,8.441 20.226,8.411 20.138,8.382 20.048,8.354 19.959,8.327 19.869,8.301 19.778,8.276 19.687,8.252 19.596,8.229 19.504,8.207 19.412,8.186 19.319,8.166 19.226,8.148 19.133,8.13 19.039,8.113 18.945,8.098 18.85,8.084 18.755,8.071 18.66,8.058 18.565,8.047 18.469,8.038 18.372,8.029 18.276,8.021 18.179,8.015 18.081,8.009 17.984,8.005 17.886,8.002 17.787,8.001 17.683,8 Z" /><path
       inkscape:connector-curvature="0"
       id="path841"
       style="fill:none;stroke:#000000;stroke-width:4px"
       d="M 19,8.333 22,6 c 0,0 0.775,-0.71 1.642,-1.505 1.331,-1.22 3.376,-1.211 4.696,0.021 10e-4,0 10e-4,0 10e-4,0.001 0.698,0.65 1.1,1.556 1.117,2.51 0.016,0.953 -0.355,1.872 -1.029,2.546 -0.458,0.458 -0.871,0.871 -1.134,1.134 C 27.105,10.895 27,11.149 27,11.414 c 0,1.028 0,3.615 0,3.615 z" /><path
       inkscape:connector-curvature="0"
       id="path843"
       style="fill:none;stroke:#000000;stroke-width:4px"
       d="M 13,8.333 10,6 C 10,6 9.225,5.29 8.358,4.495 7.027,3.275 4.982,3.284 3.662,4.516 c -10e-4,0 -10e-4,0 -10e-4,0.001 -0.698,0.65 -1.1,1.556 -1.117,2.51 -0.016,0.953 0.355,1.872 1.029,2.546 0.458,0.458 0.871,0.871 1.134,1.134 C 4.895,10.895 5,11.149 5,11.414 c 0,1.028 0,3.615 0,3.615 z" /></g><g
     transform="scale(2)"
     id="emoji"><path
       inkscape:connector-curvature="0"
       id="path846"
       style="fill:#61492b"
       d="M 19,8.333 22,6 c 0,0 0.775,-0.71 1.642,-1.505 1.331,-1.22 3.376,-1.211 4.696,0.021 10e-4,0 10e-4,0 10e-4,0.001 0.698,0.65 1.1,1.556 1.117,2.51 0.016,0.953 -0.355,1.872 -1.029,2.546 -0.458,0.458 -0.871,0.871 -1.134,1.134 C 27.105,10.895 27,11.149 27,11.414 c 0,1.028 0,3.615 0,3.615 z" /><clipPath
       id="_clip1"><path
         inkscape:connector-curvature="0"
         id="path848"
         d="M 19,8.333 22,6 c 0,0 0.775,-0.71 1.642,-1.505 1.331,-1.22 3.376,-1.211 4.696,0.021 10e-4,0 10e-4,0 10e-4,0.001 0.698,0.65 1.1,1.556 1.117,2.51 0.016,0.953 -0.355,1.872 -1.029,2.546 -0.458,0.458 -0.871,0.871 -1.134,1.134 C 27.105,10.895 27,11.149 27,11.414 c 0,1.028 0,3.615 0,3.615 z" /></clipPath><g
       id="g853"
       clip-path="url(#_clip1)"><path
         inkscape:connector-curvature="0"
         id="path851"
         style="fill:none;stroke:#2d2214;stroke-width:2px;stroke-linejoin:miter;stroke-miterlimit:2"
         d="M 26,6 C 26,6 25.74,6.26 25.485,6.515 25.171,6.829 24.97,7.24 24.915,7.681 24.772,8.823 24.5,11 24.5,11" /></g><path
       inkscape:connector-curvature="0"
       id="path855"
       style="fill:#61492b"
       d="M 13,8.333 10,6 C 10,6 9.225,5.29 8.358,4.495 7.027,3.275 4.982,3.284 3.662,4.516 c -10e-4,0 -10e-4,0 -10e-4,0.001 -0.698,0.65 -1.1,1.556 -1.117,2.51 -0.016,0.953 0.355,1.872 1.029,2.546 0.458,0.458 0.871,0.871 1.134,1.134 C 4.895,10.895 5,11.149 5,11.414 c 0,1.028 0,3.615 0,3.615 z" /><clipPath
       id="_clip2"><path
         inkscape:connector-curvature="0"
         id="path857"
         d="M 13,8.333 10,6 C 10,6 9.225,5.29 8.358,4.495 7.027,3.275 4.982,3.284 3.662,4.516 c -10e-4,0 -10e-4,0 -10e-4,0.001 -0.698,0.65 -1.1,1.556 -1.117,2.51 -0.016,0.953 0.355,1.872 1.029,2.546 0.458,0.458 0.871,0.871 1.134,1.134 C 4.895,10.895 5,11.149 5,11.414 c 0,1.028 0,3.615 0,3.615 z" /></clipPath><g
       id="g862"
       clip-path="url(#_clip2)"><path
         inkscape:connector-curvature="0"
         id="path860"
         style="fill:none;stroke:#2d2214;stroke-width:2px;stroke-linejoin:miter;stroke-miterlimit:2"
         d="M 6,6 C 6,6 6.26,6.26 6.515,6.515 6.829,6.829 7.03,7.24 7.085,7.681 7.228,8.823 7.5,11 7.5,11" /></g><path
       inkscape:connector-curvature="0"
       id="path864"
       style="fill:#906c40"
       d="m 14.311,6 c -5.246,0 -9.601,4.054 -9.974,9.288 -0.054,0.755 -0.105,1.47 -0.151,2.105 -0.12,1.681 0.371,3.35 1.382,4.698 0.713,0.95 1.566,2.087 2.332,3.109 1.322,1.763 3.397,2.8 5.6,2.8 1.574,0 3.426,0 5,0 2.203,0 4.278,-1.037 5.6,-2.8 0.766,-1.022 1.619,-2.159 2.332,-3.109 1.011,-1.348 1.502,-3.017 1.382,-4.698 -0.046,-0.635 -0.097,-1.35 -0.151,-2.105 C 27.29,10.054 22.935,6 17.689,6 16.571,6 15.429,6 14.311,6 Z" /><clipPath
       id="_clip3"><path
         inkscape:connector-curvature="0"
         id="path866"
         d="m 14.311,6 c -5.246,0 -9.601,4.054 -9.974,9.288 -0.054,0.755 -0.105,1.47 -0.151,2.105 -0.12,1.681 0.371,3.35 1.382,4.698 0.713,0.95 1.566,2.087 2.332,3.109 1.322,1.763 3.397,2.8 5.6,2.8 1.574,0 3.426,0 5,0 2.203,0 4.278,-1.037 5.6,-2.8 0.766,-1.022 1.619,-2.159 2.332,-3.109 1.011,-1.348 1.502,-3.017 1.382,-4.698 -0.046,-0.635 -0.097,-1.35 -0.151,-2.105 C 27.29,10.054 22.935,6 17.689,6 16.571,6 15.429,6 14.311,6 Z" /></clipPath><g
       id="g871"
       clip-path="url(#_clip3)"><path
         inkscape:connector-curvature="0"
         id="path869"
         style="fill:#aa804c"
         d="m 23,28 c 0,0 0,-3.173 0,-5.246 0,-1.135 -0.386,-2.237 -1.096,-3.124 -0.629,-0.786 -1.41,-1.762 -2.003,-2.504 C 19.331,16.414 18.469,16 17.558,16 c -0.944,0 -2.172,0 -3.116,0 -0.911,0 -1.773,0.414 -2.343,1.126 -0.593,0.742 -1.374,1.718 -2.003,2.504 C 9.386,20.517 9,21.619 9,22.754 9,24.827 9,28 9,28 Z" /></g><path
       inkscape:connector-curvature="0"
       id="path873"
       style="fill:#47351f"
       d="m 17.798,24.34 0.043,0.021 0.039,0.017 0.041,0.017 0.04,0.015 0.041,0.014 0.042,0.013 0.041,0.012 0.043,0.011 0.042,0.009 0.043,0.008 0.042,0.007 0.043,0.006 0.044,0.004 0.043,0.003 0.043,0.002 0.048,0.001 H 20 l 0.039,0.002 0.039,0.004 0.039,0.008 0.038,0.01 0.036,0.014 0.036,0.016 0.034,0.02 0.033,0.021 0.031,0.025 0.029,0.026 0.026,0.029 0.025,0.031 0.021,0.033 0.02,0.034 0.016,0.036 0.014,0.036 0.01,0.038 0.008,0.039 0.004,0.039 0.002,0.039 -0.002,0.039 -0.004,0.039 -0.008,0.039 -0.01,0.038 -0.014,0.036 -0.016,0.036 -0.02,0.034 -0.021,0.033 -0.025,0.031 -0.026,0.029 -0.029,0.026 -0.031,0.025 -0.033,0.021 -0.034,0.02 -0.036,0.016 -0.036,0.014 -0.038,0.01 -0.039,0.008 -0.039,0.004 L 20,25.5 h -1.531 l -0.07,-0.001 -0.072,-0.003 -0.072,-0.005 -0.072,-0.008 -0.072,-0.009 -0.072,-0.012 -0.071,-0.013 -0.07,-0.016 -0.07,-0.017 -0.07,-0.02 -0.069,-0.022 -0.068,-0.023 -0.068,-0.026 -0.067,-0.028 -0.066,-0.029 -0.063,-0.03 -1.357,-0.679 -1.357,0.679 -0.063,0.03 -0.066,0.029 -0.067,0.028 -0.068,0.026 -0.068,0.023 -0.069,0.022 -0.07,0.02 -0.07,0.017 -0.07,0.016 -0.071,0.013 -0.072,0.012 -0.072,0.009 -0.072,0.008 -0.072,0.005 -0.072,0.003 -0.07,0.001 H 12 L 11.961,25.498 11.922,25.494 11.883,25.486 11.845,25.476 11.809,25.462 11.773,25.446 11.739,25.426 11.706,25.405 11.675,25.38 11.646,25.354 11.62,25.325 11.595,25.294 11.574,25.261 11.554,25.227 11.538,25.191 11.524,25.155 11.514,25.117 11.506,25.078 11.502,25.039 11.5,25 l 0.002,-0.039 0.004,-0.039 0.008,-0.039 0.01,-0.038 0.014,-0.036 0.016,-0.036 0.02,-0.034 0.021,-0.033 0.025,-0.031 0.026,-0.029 0.029,-0.026 0.031,-0.025 0.033,-0.021 0.034,-0.02 0.036,-0.016 0.036,-0.014 0.038,-0.01 0.039,-0.008 0.039,-0.004 L 12,24.5 h 1.524 l 0.048,-0.001 0.043,-0.002 0.043,-0.003 0.044,-0.004 0.043,-0.006 0.042,-0.007 0.043,-0.008 0.042,-0.009 0.043,-0.011 0.041,-0.012 0.042,-0.013 0.041,-0.014 0.04,-0.015 0.041,-0.017 0.039,-0.017 L 14.202,24.34 16,23.441 Z" /><path
       inkscape:connector-curvature="0"
       id="path875"
       d="m 14.934,19 c -0.513,0 -1.005,0.204 -1.368,0.566 C 13.204,19.929 13,20.421 13,20.934 c 0,0 0,10e-4 0,10e-4 0,0.043 0.01,0.085 0.029,0.123 0.101,0.202 0.445,0.889 0.695,1.389 0.169,0.339 0.515,0.553 0.894,0.553 0.752,0 2.012,0 2.764,0 0.379,0 0.725,-0.214 0.894,-0.553 0.25,-0.5 0.594,-1.187 0.695,-1.389 C 18.99,21.02 19,20.978 19,20.935 c 0,0 0,-10e-4 0,-10e-4 0,-0.513 -0.204,-1.005 -0.566,-1.368 C 18.071,19.204 17.579,19 17.066,19 c -0.682,0 -1.45,0 -2.132,0 z" /><path
       inkscape:connector-curvature="0"
       id="path877"
       d="M 13,15.235 C 13,14.553 12.447,14 11.765,14 11.37,14 10.949,14 10.618,14 10.239,14 9.893,14.214 9.724,14.552 9.638,14.724 9.541,14.918 9.447,15.106 9.2,15.6 9.4,16.2 9.894,16.447 c 0.228,0.114 0.464,0.232 0.659,0.33 0.281,0.14 0.613,0.14 0.894,0 0.256,-0.128 0.583,-0.292 0.87,-0.436 C 12.736,16.132 13,15.705 13,15.237 c 0,-10e-4 0,-0.002 0,-0.002 z" /><path
       inkscape:connector-curvature="0"
       id="path879"
       d="M 19,15.235 C 19,14.553 19.553,14 20.235,14 c 0.395,0 0.816,0 1.147,0 0.379,0 0.725,0.214 0.894,0.552 0.086,0.172 0.183,0.366 0.277,0.554 0.247,0.494 0.047,1.094 -0.447,1.341 -0.228,0.114 -0.464,0.232 -0.659,0.33 -0.281,0.14 -0.613,0.14 -0.894,0 C 20.297,16.649 19.97,16.485 19.683,16.341 19.264,16.132 19,15.705 19,15.237 c 0,-10e-4 0,-0.002 0,-0.002 z" /></g></g><circle
   style="fill:#0000ff;fill-opacity:0.37344402;stroke:#0000ff;stroke-width:1;stroke-linecap:round;stroke-linejoin:round;stroke-miterlimit:1.5;stroke-dasharray:none;stroke-opacity:1"
   id="path2659"
   cx="32.396141"
   cy="32.396141"
   r="31.896143" /><circle
   style="fill:#ff0000;fill-opacity:1;stroke:#ff0000;stroke-width:0.058;stroke-linecap:round;stroke-linejoin:round;stroke-miterlimit:1.5;stroke-dasharray:none;stroke-opacity:1"
   id="path936"
   cx="82.999855"
   cy="64.792435"
   r="2.4708517" /></svg>